Country,AvTemp1995,AvTemp2013
Austria,29,36
Italy,35,27
Germany,23,27
Sweden,38,38
Spain,24,24
Colombia,33,27
Portugal,25,30
Hungary,32,38
Peru,34,28
Chile,33,35
Bolivia,30,29
Paraguay,21,29
Norway,31,34
Iceland,35,30
Brasil,26,37
Argentinia,34,34
Venezuela,25,29
Mexico,30,35
Indonesia,28,30
Vietnam,33,26
India,23,20
Pakistan,32,30
Afghanistan,31,26
Turkey ,23,26
Egypt,25,28
Thailand,20,26
Australia,30,29
